[
  { "product": "Chainsaw", "price": 230 },
  { "product": "2 french rolls", "price": 6 },
  { "product": "BigMac", "price": 37 },
  { "product": "Milk", "price": 7 },
  { "product": "Ham & cheese sandwich", "price": 4 },
  { "product": "Lost Season 1 DVD", "price": 99 },
  { "product": "MakeUp set", "price": 67 },
  { "product": "Batman's costume", "price": 421 },
  { "product": "Robot hand", "price": 2230 },
  { "product": "Pizza", "price": 40 },
  { "product": "Boat", "price": 14300 },
  { "product": "Champagne", "price": 90 },
  { "product": "Bucket", "price": 14 },
  { "product": "Paper bags", "price": 9 },
  { "product": "Coffee", "price": 22 },
  { "product": "Shades", "price": 300 }
]